rouder_analizy
…
# Calculate mean durations by subject and block type
mean_by_type <- clean_data |>
  group_by(PART_ID, Block_type) |>
  summarize(mean_duration = mean(duration_ms), .groups = "drop") |>
  pivot_wider(
    names_from = Block_type,
    values_from = mean_duration,
    names_prefix = "type_"
  ) |>
  rename(pro = type_PS, anti = type_AS) |>
  mutate(diff = anti - pro) |>
  filter(diff > 0 ) # Removes 11 perticipants with negative diff
mean_by_type

# A tibble: 177 × 4
   PART_ID       anti   pro   diff
   <chr>        <dbl> <dbl>  <dbl>
 1 Y2-S2-002K25  232.  208.  24.4 
 2 Y2-S2-003K22  268.  227.  40.5 
 3 Y2-S2-004K21  285.  208.  76.8 
 4 Y2-S2-008K23  367.  279.  88.1 
 5 Y2-S2-009K22  527.  421. 107.  
 6 Y2-S2-010K21  364.  193. 171.  
 7 Y2-S2-011K24  340.  168. 172.  
 8 Y2-S2-012M26  298.  233.  65.5 
 9 Y2-S2-013M31  274.  179.  95.2 
10 Y2-S2-014K21  270.  264.   5.95
# ℹ 167 more rows
…
